{
  "openapi": "3.0.1",
  "info": {
    "title": "CommunityService",
    "version": "1.0"
  },
  "paths": {
    "/api/community": {
      "get": {
        "tags": [
          "CommunityService"
        ],
        "operationId": "GetCommunityList",
        "responses": {
          "200": {
            "description": "OK"
          }
        }
      }
    },
    "/api/community/{id}": {
      "get": {
        "tags": [
          "CommunityService"
        ],
        "operationId": "GetCommunityById",
        "parameters": [
          {
            "name": "id",
            "in": "query",
            "required": true,
            "style": "form",
            "schema": {
              "type": "string",
              "format": "uuid"
            }
          }
        ],
        "responses": {
          "200": {
            "description": "OK"
          }
        }
      }
    },
    "/api/event": {
      "get": {
        "tags": [
          "CommunityService"
        ],
        "operationId": "GetEventList",
        "responses": {
          "200": {
            "description": "OK"
          }
        }
      }
    },
    "/api/event/{id}": {
      "get": {
        "tags": [
          "CommunityService"
        ],
        "operationId": "GetEventById",
        "parameters": [
          {
            "name": "id",
            "in": "query",
            "required": true,
            "style": "form",
            "schema": {
              "type": "string",
              "format": "uuid"
            }
          }
        ],
        "responses": {
          "200": {
            "description": "OK"
          }
        }
      }
    }
  },
  "components": { }
}